{
  "variables": {
    "project_name": "",
    "base_image_name": "",
    "repository": "",
    "image_name": "",
    "fq_image_name": "",
    "image_tag": ""
  },
  "builders": [
    {
      "type": "docker",
      "image": "{{user `base_image_name`}}",
      "commit": true
    }
  ],
  "provisioners": [
    {
      "type": "shell",
      "inline": [
        "mkdir -p /var/tmp/packer-build/scripts",
        "mkdir -p /var/tmp/packer-build/files"
      ]
    },
    {
      "type": "file",
      "source": "./source/scripts/",
      "destination": "/var/tmp/packer-build/scripts"
    },
    {
      "type": "file",
      "source": "./source/files/",
      "destination": "/var/tmp/packer-build/files"
    },
    {
      "type": "shell",
      "inline": "for f in /var/tmp/packer-build/scripts/*; do chmod u+x $f && ./$f; done;"
    }
  ],
  "post-processors": [
    {
      "type": "docker-tag",
      "repository": "{{user `fq_image_name`}}",
      "tag": "{{user `image_tag`}}"
    }
  ]
}
